cpu/cpu.vcd
$date
	Sun Sep  8 17:01:13 2024
$end
$version
	Icarus Verilog
$end
$timescale
	1ns
$end
$scope module cputb $end
$var reg 32 ! PC [31:0] $end
$var reg 1 " clk $end
$var reg 32 # cycles [31:0] $end
$scope module uut $end
$var wire 1 " clk $end
$var wire 32 $ cycles [31:0] $end
$var wire 32 % mem_read_addr [31:0] $end
$var wire 1 & sp_write_en $end
$var wire 32 ' sp_out [31:0] $end
$var wire 32 ( sp_node [31:0] $end
$var wire 32 ) sp_in [31:0] $end
$var wire 1 * rn_update_en $end
$var wire 32 + rn_out [31:0] $end
$var wire 32 , rn_in [31:0] $end
$var wire 1 - rjump $end
$var wire 1 . reg_write_en $end
$var wire 3 / reg_write_code [2:0] $end
$var wire 32 0 reg_data_in [31:0] $end
$var wire 32 1 reg2_data_out [31:0] $end
$var wire 3 2 reg2_code [2:0] $end
$var wire 32 3 reg1_data_out [31:0] $end
$var wire 3 4 reg1_code [2:0] $end
$var wire 15 5 point [14:0] $end
$var wire 6 6 opcode [5:0] $end
$var wire 15 7 next [14:0] $end
$var wire 1 8 mem_write_en2 $end
$var wire 1 9 mem_write_en $end
$var wire 32 : mem_write_addr2 [31:0] $end
$var wire 32 ; mem_write_addr [31:0] $end
$var wire 32 < mem_data_out [31:0] $end
$var wire 32 = mem_data_in2 [31:0] $end
$var wire 32 > mem_data_in [31:0] $end
$var wire 32 ? jump_loc [31:0] $end
$var wire 32 @ jump_inc [31:0] $end
$var wire 1 A jump $end
$var wire 32 B instr [31:0] $end
$var wire 32 C imm2 [31:0] $end
$var wire 32 D imm [31:0] $end
$var wire 1 E flag_update_en $end
$var wire 32 F edge_weight [31:0] $end
$var wire 32 G SREG_write [31:0] $end
$var wire 32 H SREG_read [31:0] $end
$var reg 32 I PC [31:0] $end
$var reg 1 J PC_fetch $end
$var reg 1 K PC_wb_tr $end
$var reg 1 L check_wb $end
$var reg 1 M dne_tr $end
$var reg 1 N execute_finished $end
$var reg 1 O fetch_tr $end
$var reg 1 P flag_update_tr $end
$var reg 1 Q mem_read $end
$var reg 1 R mem_wb_tr $end
$var reg 1 S mem_wb_tr2 $end
$var reg 1 T mem_write $end
$var reg 32 U node_reg [31:0] $end
$var reg 1 V reg_read $end
$var reg 1 W reg_tr $end
$var reg 1 X reg_wb_tr $end
$var reg 1 Y reg_write $end
$var reg 1 Z rn_tr $end
$var reg 32 [ sp_reg [31:0] $end
$var reg 1 \ sp_write_tr $end
$var reg 1 ] stall $end
$var reg 3 ^ write_backs [2:0] $end
$var reg 3 _ written [2:0] $end
$scope module ex_inst $end
$var wire 1 " clk $end
$var wire 1 M dne_tr $end
$var wire 15 ` next [14:0] $end
$var wire 6 a opcode [5:0] $end
$var wire 15 b point [14:0] $end
$var wire 3 c reg1_code [2:0] $end
$var wire 3 d reg2_code [2:0] $end
$var wire 32 e sp_in [31:0] $end
$var wire 32 f reg2_input_data [31:0] $end
$var wire 32 g reg1_input_data [31:0] $end
$var wire 32 h node_reg_in [31:0] $end
$var wire 32 i mem_read_data [31:0] $end
$var wire 32 j imm2 [31:0] $end
$var wire 32 k imm [31:0] $end
$var wire 32 l edge_weight [31:0] $end
$var wire 32 m SREG_in [31:0] $end
$var reg 32 n PC_jump_inc [31:0] $end
$var reg 32 o PC_jump_loc [31:0] $end
$var reg 32 p SREG_out [31:0] $end
$var reg 32 q edge_loc [31:0] $end
$var reg 32 r execution_cnt [31:0] $end
$var reg 1 E flag_update $end
$var reg 1 s has_imm $end
$var reg 1 A jump $end
$var reg 1 9 mem_wb $end
$var reg 1 8 mem_wb2 $end
$var reg 32 t mem_write_addr [31:0] $end
$var reg 32 u mem_write_addr2 [31:0] $end
$var reg 32 v mem_write_val [31:0] $end
$var reg 32 w mem_write_val2 [31:0] $end
$var reg 32 x node_reg_out [31:0] $end
$var reg 1 . reg_wb $end
$var reg 3 y reg_write_code [2:0] $end
$var reg 32 z reg_write_val [31:0] $end
$var reg 32 { res [31:0] $end
$var reg 1 - rjump $end
$var reg 1 * rn_wb $end
$var reg 32 | sp_out [31:0] $end
$var reg 1 & sp_wb $end
$var reg 32 } visited_addr [31:0] $end
$upscope $end
$scope module mem_inst $end
$var wire 1 " clk $end
$var wire 32 ~ data_in [31:0] $end
$var wire 32 !" data_in2 [31:0] $end
$var wire 1 O fetch $end
$var wire 32 "" fetch_addr [31:0] $end
$var wire 1 Q re $end
$var wire 32 #" read_addr [31:0] $end
$var wire 32 $" rn_in [31:0] $end
$var wire 32 %" sp [31:0] $end
$var wire 1 T we $end
$var wire 32 &" write_addr [31:0] $end
$var wire 32 '" write_addr2 [31:0] $end
$var wire 1 R write_back_en $end
$var wire 1 S write_back_en2 $end
$var reg 32 (" data_out [31:0] $end
$var reg 32 )" edge_weight [31:0] $end
$var reg 32 *" i [31:0] $end
$var reg 32 +" imm [31:0] $end
$var reg 32 ," imm2 [31:0] $end
$var reg 32 -" instr [31:0] $end
$var reg 32 ." sp_node [31:0] $end
$upscope $end
$scope module reg_inst $end
$var wire 32 /" SREG_write [31:0] $end
$var wire 1 " clk $end
$var wire 32 0" data_in [31:0] $end
$var wire 1 P flag_update $end
$var wire 1 W get_reg_en $end
$var wire 1 V re $end
$var wire 3 1" reg1 [2:0] $end
$var wire 3 2" reg2 [2:0] $end
$var wire 1 X reg_write_back $end
$var wire 3 3" reg_write_code [2:0] $end
$var wire 32 4" rn_write [31:0] $end
$var wire 1 Z rn_write_tr $end
$var wire 32 5" sp_write [31:0] $end
$var wire 1 \ sp_write_tr $end
$var wire 1 Y we $end
$var reg 32 6" SREG_read [31:0] $end
$var reg 32 7" data_out1 [31:0] $end
$var reg 32 8" data_out2 [31:0] $end
$var reg 32 9" rn_read [31:0] $end
$var reg 32 :" sp_read [31:0] $end
$upscope $end
$upscope $end
$upscope $end
$enddefinitions $end
$comment Show the parameter values. $end
$dumpall
$end
#0
$dumpvars
bx :"
bx 9"
bx 8"
bx 7"
bx 6"
bx 5"
bx 4"
bx 3"
b0 2"
b0 1"
bx 0"
bx /"
bx ."
b10001100000000000000000000000000 -"
b1 ,"
b1000000000000010 +"
b10000000001100000000000 *"
bx )"
b0 ("
bx '"
bx &"
bx %"
bx $"
bz #"
b0 ""
bx !"
bx ~
bx }
bx |
bx {
bx z
bx y
bx x
bx w
bx v
bx u
bx t
xs
b0 r
bx q
bx p
bx o
bx n
bx m
bx l
b1000000000000010 k
b1 j
b0 i
bx h
bx g
bx f
bx e
b0 d
b0 c
b10 b
b100011 a
b1 `
b0 _
b0 ^
0]
x\
bx [
xZ
xY
xX
1W
xV
bx U
xT
xS
xR
xQ
xP
0O
xN
xM
xL
xK
xJ
b0 I
bx H
bx G
bx F
xE
b1000000000000010 D
b1 C
b10001100000000000000000000000000 B
xA
bx @
bx ?
bx >
bx =
b0 <
bx ;
bx :
x9
x8
b1 7
b100011 6
b10 5
b0 4
bx 3
b0 2
bx 1
bx 0
bx /
x.
x-
bx ,
bx +
x*
bx )
bx (
bx '
x&
bz %
b0 $
b0 #
1"
b0 !
$end
#1
0"
#2
b11 I
b11 ""
1M
0W
b10000000001000000000000 '
b10000000001000000000000 e
b10000000001000000000000 :"
bx0xxxxxxxxxxxxxxxxxxxxxxxxxxxxxx +
bx0xxxxxxxxxxxxxxxxxxxxxxxxxxxxxx h
bx0xxxxxxxxxxxxxxxxxxxxxxxxxxxxxx 9"
1"
b1 #
b1 $
#3
0"
#4
1N
1L
0M
b1 @
b1 n
b1 >
b1 v
b1 ~
b1000000000010 ;
b1000000000010 t
b1000000000010 &"
b1000000000010 q
0E
1-
0A
0*
0&
08
19
0.
b1 r
1"
b10 #
b10 $
#5
0"
#6
1]
1J
1K
b1 ^
1R
0L
1"
b11 #
b11 $
#7
0"
#8
0K
0R
b1 _
1"
b100 #
b100 $
#9
0"
#10
1O
1"
b101 #
b101 $
#11
0"
#12
0]
1W
0O
b11 5
b11 b
b10 7
b10 `
b10000000000000011 D
b10000000000000011 k
b10000000000000011 +"
b0 _
b0 ^
1"
b110 #
b110 $
#13
0"
#14
b110 I
b110 ""
1M
0W
1"
b111 #
b111 $
#15
0"
#16
1L
0M
b1100000000011 ;
b1100000000011 t
b1100000000011 &"
b1100000000011 q
1-
19
b10 r
1"
b1000 #
b1000 $
#17
0"
#18
1]
1K
b1 ^
1R
0L
1"
b1001 #
b1001 $
#19
0"
#20
0K
0R
b1 _
1"
b1010 #
b1010 $
#21
0"
#22
1O
1"
b1011 #
b1011 $
#23
0"
#24
0]
1W
0O
b100 5
b100 b
b11 7
b11 `
b11000000000000100 D
b11000000000000100 k
b11000000000000100 +"
b0 _
b0 ^
1"
b1100 #
b1100 $
#25
0"
#26
b1001 I
b1001 ""
1M
0W
1"
b1101 #
b1101 $
#27
0"
#28
1L
0M
b10000000000100 ;
b10000000000100 t
b10000000000100 &"
b10000000000100 q
1-
19
b11 r
1"
b1110 #
b1110 $
#29
0"
#30
1]
1K
b1 ^
1R
0L
1"
b1111 #
b1111 $
#31
0"
#32
0K
0R
b1 _
1"
b10000 #
b10000 $
#33
0"
#34
1O
1"
b10001 #
b10001 $
#35
0"
#36
b100110 6
b100110 a
b1000000000000010 <
b1000000000000010 i
b1000000000000010 ("
b0 C
b0 j
b0 ,"
b10011000000000000000000000000000 B
b10011000000000000000000000000000 -"
0]
1W
0O
b1 5
b1 b
b0 7
b0 `
b1 D
b1 k
b1 +"
b0 _
b0 ^
1"
b10010 #
b10010 $
#37
0"
#38
b1100 I
b1100 ""
1M
0W
1"
b10011 #
b10011 $
#39
0"
#40
1L
0M
1.
b10xxxxxxxxxxxxxxxxxxxxxxxxxxxxxx 0
b10xxxxxxxxxxxxxxxxxxxxxxxxxxxxxx z
b10xxxxxxxxxxxxxxxxxxxxxxxxxxxxxx 0"
b101 /
b101 y
b101 3"
0-
09
b100 r
1"
b10100 #
b10100 $
#41
0"
#42
1]
b1 ^
1X
0L
b10xxxxxxxxxxxxxxxxxxxxxxxxxxxxxx U
b10xxxxxxxxxxxxxxxxxxxxxxxxxxxxxx $"
1"
b10101 #
b10101 $
#43
0"
#44
0X
b1 _
1"
b10110 #
b10110 $
#45
0"
#46
1O
1"
b10111 #
b10111 $
#47
0"
#48
b100101 6
b100101 a
b10010100000000000000000000000000 B
b10010100000000000000000000000000 -"
0]
1W
0O
b0 _
b0 ^
1"
b11000 #
b11000 $
#49
0"
#50
b1111 I
b1111 ""
1M
0W
b10xxxxxxxxxxxxxxxxxxxxxxxxxxxxxx +
b10xxxxxxxxxxxxxxxxxxxxxxxxxxxxxx h
b10xxxxxxxxxxxxxxxxxxxxxxxxxxxxxx 9"
1"
b11001 #
b11001 $
#51
0"
#52
1L
0M
b10000000000000001000000000000000 0
b10000000000000001000000000000000 z
b10000000000000001000000000000000 0"
1.
b101 r
1"
b11010 #
b11010 $
#53
0"
#54
1]
b1 ^
1X
0L
b10000000000000001000000000000000 U
b10000000000000001000000000000000 $"
1"
b11011 #
b11011 $
#55
0"
#56
0X
b1 _
1"
b11100 #
b11100 $
#57
0"
#58
1O
1"
b11101 #
b11101 $
#59
0"
#60
b100111 6
b100111 a
b10001100000000000000000000000000 <
b10001100000000000000000000000000 i
b10001100000000000000000000000000 ("
b10011100000000000000000000000000 B
b10011100000000000000000000000000 -"
0]
1W
0O
b0 5
b0 b
b0 F
b0 l
b0 )"
b0 D
b0 k
b0 +"
b0 _
b0 ^
1"
b11110 #
b11110 $
#61
0"
#62
b10010 I
b10010 ""
1M
0W
b10000000000000001000000000000000 +
b10000000000000001000000000000000 h
b10000000000000001000000000000000 9"
1"
b11111 #
b11111 $
#63
0"
#64
1L
0M
1*
b10000000000000001000000000000001 ,
b10000000000000001000000000000001 x
b10000000000000001000000000000001 4"
0.
b110 r
1"
b100000 #
b100000 $
#65
0"
#66
1]
b1 ^
1Z
0L
b10000000000000001000000000000001 U
b10000000000000001000000000000001 $"
1"
b100001 #
b100001 $
#67
0"
#68
0Z
b1 _
1"
b100010 #
b100010 $
#69
0"
#70
1O
1"
b100011 #
b100011 $
#71
0"
#72
0]
1W
0O
b0 _
b0 ^
1"
b100100 #
b100100 $
#73
0"
#74
b10101 I
b10101 ""
1M
0W
b10000000000000001000000000000001 +
b10000000000000001000000000000001 h
b10000000000000001000000000000001 9"
1"
b100101 #
b100101 $
#75
0"
#76
1L
0M
b10000000000000001000000000000010 ,
b10000000000000001000000000000010 x
b10000000000000001000000000000010 4"
1*
b111 r
1"
b100110 #
b100110 $
#77
0"
#78
1]
b1 ^
1Z
0L
b10000000000000001000000000000010 U
b10000000000000001000000000000010 $"
1"
b100111 #
b100111 $
#79
0"
#80
0Z
b1 _
1"
b101000 #
b101000 $
#81
0"
#82
1O
1"
b101001 #
b101001 $
#83
0"
#84
0]
1W
0O
b1 F
b1 l
b1 )"
b0 _
b0 ^
1"
b101010 #
b101010 $
#85
0"
#86
b11000 I
b11000 ""
1M
0W
b10000000000000001000000000000010 +
b10000000000000001000000000000010 h
b10000000000000001000000000000010 9"
1"
b101011 #
b101011 $
#87
0"
#88
b10000000001000000000001 :
b10000000001000000000001 u
b10000000001000000000001 '"
b10000000000000001000000000000010 =
b10000000000000001000000000000010 w
b10000000000000001000000000000010 !"
b10000000001000000000001 )
b10000000001000000000001 |
b10000000001000000000001 5"
b10000000010000010000100000000000 ;
b10000000010000010000100000000000 t
b10000000010000010000100000000000 &"
1L
0M
18
1&
19
b10000000000000010000000000000000 ,
b10000000000000010000000000000000 x
b10000000000000010000000000000000 4"
1*
b1000 r
1"
b101100 #
b101100 $
#89
0"
#90
1]
1Z
b10000000001000000000001 [
b10000000001000000000001 %"
1\
1S
b1 ^
1R
0L
b10000000000000010000000000000000 U
b10000000000000010000000000000000 $"
1"
b101101 #
b101101 $
#91
0"
#92
0Z
0\
0S
0R
b1 _
1"
b101110 #
b101110 $
#93
0"
#94
1O
1"
b101111 #
b101111 $
#95
0"
#96
b10000000000000001000000000000010 (
b10000000000000001000000000000010 ."
0]
1W
0O
b0 F
b0 l
b0 )"
b0 _
b0 ^
1"
b110000 #
b110000 $
#97
0"
#98
b11011 I
b11011 ""
1M
0W
b10000000001000000000001 '
b10000000001000000000001 e
b10000000001000000000001 :"
b10000000000000010000000000000000 +
b10000000000000010000000000000000 h
b10000000000000010000000000000000 9"
1"
b110001 #
b110001 $
#99
0"
#100
1L
0M
b10000000000000010000000000000001 ,
b10000000000000010000000000000001 x
b10000000000000010000000000000001 4"
1*
0&
08
09
b1001 r
1"
b110010 #
b110010 $
#101
0"
#102
1]
b1 ^
1Z
0L
b10000000000000010000000000000001 U
b10000000000000010000000000000001 $"
1"
b110011 #
b110011 $
#103
0"
#104
0Z
b1 _
1"
b110100 #
b110100 $
#105
0"
#106
1O
1"
b110101 #
b110101 $
#107
0"
#108
0]
1W
0O
b0 _
b0 ^
1"
b110110 #
b110110 $
#109
0"
#110
b11110 I
b11110 ""
1M
0W
b10000000000000010000000000000001 +
b10000000000000010000000000000001 h
b10000000000000010000000000000001 9"
1"
b110111 #
b110111 $
#111
0"
#112
1L
0M
b10000000000000010000000000000010 ,
b10000000000000010000000000000010 x
b10000000000000010000000000000010 4"
1*
b1010 r
1"
b111000 #
b111000 $
#113
0"
#114
1]
b1 ^
1Z
0L
b10000000000000010000000000000010 U
b10000000000000010000000000000010 $"
1"
b111001 #
b111001 $
#115
0"
#116
0Z
b1 _
1"
b111010 #
b111010 $
#117
0"
#118
1O
1"
b111011 #
b111011 $
#119
0"
#120
0]
1W
0O
b0 _
b0 ^
1"
b111100 #
b111100 $
#121
0"
#122
b100001 I
b100001 ""
1M
0W
b10000000000000010000000000000010 +
b10000000000000010000000000000010 h
b10000000000000010000000000000010 9"
1"
b111101 #
b111101 $
#123
0"
#124
1L
0M
b10000000000000010000000000000011 ,
b10000000000000010000000000000011 x
b10000000000000010000000000000011 4"
1*
b1011 r
1"
b111110 #
b111110 $
#125
0"
#126
1]
b1 ^
1Z
0L
b10000000000000010000000000000011 U
b10000000000000010000000000000011 $"
1"
b111111 #
b111111 $
#127
0"
#128
0Z
b1 _
1"
b1000000 #
b1000000 $
#129
0"
#130
1O
1"
b1000001 #
b1000001 $
#131
0"
#132
0]
1W
0O
b1 F
b1 l
b1 )"
b0 _
b0 ^
1"
b1000010 #
b1000010 $
#133
0"
#134
b100100 I
b100100 ""
1M
0W
b10000000000000010000000000000011 +
b10000000000000010000000000000011 h
b10000000000000010000000000000011 9"
1"
b1000011 #
b1000011 $
#135
0"
#136
b10000000001000000000010 :
b10000000001000000000010 u
b10000000001000000000010 '"
b10000000000000010000000000000011 =
b10000000000000010000000000000011 w
b10000000000000010000000000000011 !"
b10000000001000000000010 )
b10000000001000000000010 |
b10000000001000000000010 5"
b10000000010000011000100000000000 ;
b10000000010000011000100000000000 t
b10000000010000011000100000000000 &"
1L
0M
18
1&
19
b10000000000000011000000000000000 ,
b10000000000000011000000000000000 x
b10000000000000011000000000000000 4"
1*
b1100 r
1"
b1000100 #
b1000100 $
#137
0"
#138
1]
1Z
b10000000001000000000010 [
b10000000001000000000010 %"
1\
1S
b1 ^
1R
0L
b10000000000000011000000000000000 U
b10000000000000011000000000000000 $"
1"
b1000101 #
b1000101 $
#139
0"
#140
0Z
0\
0S
0R
b1 _
1"
b1000110 #
b1000110 $
#141
0"
#142
1O
1"
b1000111 #
b1000111 $
#143
0"
#144
b10000000000000010000000000000011 (
b10000000000000010000000000000011 ."
0]
1W
0O
b0 F
b0 l
b0 )"
b0 _
b0 ^
1"
b1001000 #
b1001000 $
#145
0"
#146
b100111 I
b100111 ""
1M
0W
b10000000001000000000010 '
b10000000001000000000010 e
b10000000001000000000010 :"
b10000000000000011000000000000000 +
b10000000000000011000000000000000 h
b10000000000000011000000000000000 9"
1"
b1001001 #
b1001001 $
#147
0"
#148
1L
0M
b10000000000000011000000000000001 ,
b10000000000000011000000000000001 x
b10000000000000011000000000000001 4"
1*
0&
08
09
b1101 r
1"
b1001010 #
b1001010 $
#149
0"
#150
1]
b1 ^
1Z
0L
b10000000000000011000000000000001 U
b10000000000000011000000000000001 $"
1"
b1001011 #
b1001011 $
#151
0"
#152
0Z
b1 _
1"
b1001100 #
b1001100 $
#153
0"
#154
1O
1"
b1001101 #
b1001101 $
#155
0"
#156
0]
1W
0O
b0 _
b0 ^
1"
b1001110 #
b1001110 $
#157
0"
#158
b101010 I
b101010 ""
1M
0W
b10000000000000011000000000000001 +
b10000000000000011000000000000001 h
b10000000000000011000000000000001 9"
1"
b1001111 #
b1001111 $
#159
0"
#160
1L
0M
b10000000000000011000000000000010 ,
b10000000000000011000000000000010 x
b10000000000000011000000000000010 4"
1*
b1110 r
1"
b1010000 #
b1010000 $
#161
0"
#162
1]
b1 ^
1Z
0L
b10000000000000011000000000000010 U
b10000000000000011000000000000010 $"
1"
b1010001 #
b1010001 $
#163
0"
#164
0Z
b1 _
1"
b1010010 #
b1010010 $
#165
0"
#166
1O
1"
b1010011 #
b1010011 $
#167
0"
#168
b0 6
b0 a
b0 B
b0 -"
0]
1W
0O
b0 _
b0 ^
1"
b1010100 #
b1010100 $
#169
0"
#170
b101101 I
b101101 ""
1M
0W
b10000000000000011000000000000010 +
b10000000000000011000000000000010 h
b10000000000000011000000000000010 9"
1"
b1010101 #
b1010101 $
#171
0"
#172
1L
0M
1E
1.
bx 0
bx z
bx 0"
b0 /
b0 y
b0 3"
bx0x G
bx0x p
bx0x /"
0s
0*
b1111 r
1"
b1010110 #
b1010110 $
#173
0"
#174
1]
1P
b1 ^
1X
0L
1"
b1010111 #
b1010111 $
#175
0"
#176
0P
0X
b1 _
1"
b1011000 #
b1011000 $
#177
0"
#178
1O
1"
b1011001 #
b1011001 $
#179
0"
#180
0]
1W
0O
b0 _
b0 ^
1"
b1011010 #
b1011010 $
#181
0"
#182
b110000 I
b110000 ""
1M
0W
1"
b1011011 #
b1011011 $
#183
0"
#184
1L
0M
1E
1.
b10000 r
bx0x G
bx0x p
bx0x /"
1"
b1011100 #
b1011100 $
#185
0"
#186
1]
1P
b1 ^
1X
0L
1"
b1011101 #
b1011101 $
#187
0"
#188
0P
0X
b1 _
1"
b1011110 #
b1011110 $
#189
0"
#190
1O
1"
b1011111 #
b1011111 $
#191
0"
#192
0]
1W
0O
b0 _
b0 ^
1"
b1100000 #
b1100000 $
#193
0"
#194
b110011 I
b110011 ""
1M
0W
1"
b1100001 #
b1100001 $
#195
0"
#196
1L
0M
1E
1.
b10001 r
bx0x G
bx0x p
bx0x /"
1"
b1100010 #
b1100010 $
#197
0"
#198
1]
1P
b1 ^
1X
0L
1"
b1100011 #
b1100011 $
#199
0"
#200
0P
0X
b1 _
1"
b1100100 #
b1100100 $
#201
0"
#202
1O
1"
b1100101 #
b1100101 $
#203
0"
#204
0]
1W
0O
b0 _
b0 ^
1"
b1100110 #
b1100110 $
#205
0"
#206
b110110 I
b110110 ""
1M
0W
1"
b1100111 #
b1100111 $
#207
0"
#208
1L
0M
1E
1.
b10010 r
bx0x G
bx0x p
bx0x /"
1"
b1101000 #
b1101000 $
#209
0"
#210
1]
1P
b1 ^
1X
0L
1"
b1101001 #
b1101001 $
#211
0"
#212
0P
0X
b1 _
1"
b1101010 #
b1101010 $
#213
0"
#214
1O
1"
b1101011 #
b1101011 $
#215
0"
#216
0]
1W
0O
b0 _
b0 ^
1"
b1101100 #
b1101100 $
#217
0"
#218
b111001 I
b111001 ""
1M
0W
1"
b1101101 #
b1101101 $
#219
0"
#220
1L
0M
1E
1.
b10011 r
bx0x G
bx0x p
bx0x /"
1"
b1101110 #
b1101110 $
#221
0"
#222
1]
1P
b1 ^
1X
0L
1"
b1101111 #
b1101111 $
#223
0"
#224
0P
0X
b1 _
1"
b1110000 #
b1110000 $
#225
0"
#226
1O
1"
b1110001 #
b1110001 $
#227
0"
#228
0]
1W
0O
b0 _
b0 ^
1"
b1110010 #
b1110010 $
#229
0"
#230
b111100 I
b111100 ""
1M
0W
1"
b1110011 #
b1110011 $
#231
0"
#232
1L
0M
1E
1.
b10100 r
bx0x G
bx0x p
bx0x /"
1"
b1110100 #
b1110100 $
#233
0"
#234
1]
1P
b1 ^
1X
0L
1"
b1110101 #
b1110101 $
#235
0"
#236
0P
0X
b1 _
1"
b1110110 #
b1110110 $
#237
0"
#238
1O
1"
b1110111 #
b1110111 $
#239
0"
#240
1"
b1111000 #
b1111000 $
